{
  "firestore": {
    "rules": "firestore.rules",
    "indexes": "firestore.indexes.json"
  },
  "emulators": {
    "firestore": {
      "port": 8081
    },
    "ui": {
      "enabled": true
    },
    "storage": {
      "port": 9199
    },
    "hosting": {
      "port": 5000
    }
  },
  "hosting": {
    "public": "build",
    "ignore": [
      "firebase.json",
      "**/.*",
      "**/node_modules/**"
    ]
  },
  "storage": {
    "rules": "storage.rules"
  }
}
